<?xml version="1.0" encoding="UTF-8"?>
<svg xmlns="http://www.w3.org/2000/svg" xmlns:xlink="http://www.w3.org/1999/xlink" width="11pt" height="40pt" viewBox="0 0 11 40" version="1.1">
<g id="surface1">
<path style=" stroke:none;fill-rule:nonzero;fill:rgb(0%,0%,0%);fill-opacity:1;" d="M 6.085938 12.476562 L 10.757812 23.101562 C 11.082031 23.835938 11.082031 25.023438 10.757812 25.75 L 9.984375 27.515625 C 9.660156 28.25 9.136719 28.25 8.816406 27.515625 L 5.5 19.992188 L 2.1875 27.523438 C 1.863281 28.257812 1.339844 28.257812 1.019531 27.523438 L 0.242188 25.757812 C -0.0820312 25.023438 -0.0820312 23.835938 0.242188 23.109375 L 4.914062 12.484375 C 5.238281 11.742188 5.761719 11.742188 6.085938 12.476562 Z M 6.085938 12.476562 "/>
</g>
</svg>
